…
# set data prefix
data_prefix <- "/lustre/scratch125/pam/teams/team333/rp24/DIRO/DATA/BATCH3/02_VARIANTS/ADMIXTOOLS/nuclear_samples3x_missing0.9.chr1to4.recode.RENAMED"

# read in data
snps <- eigenstrat(data_prefix)
snps

#count SNPs
##The count_snps function can be useful for quality control, weighting of admixture statistics (D, f4, etc.) in regression analyses etc.
snp_info <- count_snps(snps)
snp_info
'# A tibble: 81 × 4
   id        sex   label     present
   <chr>     <chr> <chr>       <int>
 1 ERR034940 U     USA        155325
 2 ERR034941 U     Italy      171468
 3 Dog2.1    U     Australia  174564
 4 Dog2.2    U     Australia  174348
 5 Dog2.3    U     Australia  174557
 6 Dog2.4    U     Australia  174555
 7 JS6281    U     Australia  174585
 8 JS6342    U     Australia  174374
 9 JS6343    U     Australia  174540
10 JS6344    U     Australia  174533
# … with 71 more rows
…
